{
  "type": "script",
  "seleniumVersion": "2",
  "formatVersion": 2,
  "steps": [
    {
      "type": "get",
      "url": "https://www.google.co.uk/?gfe_rd=cr&ei=AXERVe_4DIu8-Qb31YCYDw&gws_rd=ssl"
    },
    {
      "type": "setElementText",
      "locator": {
        "type": "id",
        "value": "lst-ib"
      },
      "text": "bbc"
    },
    {
      "type": "sendKeysToElement",
      "locator": {
        "type": "id",
        "value": "lst-ib"
      },
      "text": "\n"
    },
    {
      "type": "clickElement",
      "locator": {
        "type": "link text",
        "value": "BBC - Homepage"
      }
    },
    {
      "type": "clickElement",
      "locator": {
        "type": "link text",
        "value": "BBC NEWS"
      }
    }
  ],
  "data": {
    "configs": {},
    "source": "none"
  },
  "inputs": [],
  "timeoutSeconds": 60
}